[gd_scene load_steps=5 format=2]

[ext_resource path="res://scenes/playground.tscn" type="PackedScene" id=1]

[sub_resource type="SphereMesh" id=1]
radius = 2.0
height = 4.0

[sub_resource type="SpatialMaterial" id=2]

[sub_resource type="Animation" id=3]
length = 12.0
loop = true
tracks/0/type = "value"
tracks/0/path = NodePath(".:translation")
tracks/0/interp = 1
tracks/0/loop_wrap = true
tracks/0/imported = false
tracks/0/enabled = true
tracks/0/keys = {
"times": PoolRealArray( 0, 2, 4, 8, 10, 12 ),
"transitions": PoolRealArray( 1, 1, 1, 1, 1, 1 ),
"update": 0,
"values": [ Vector3( 0, 2, 0 ), Vector3( 0, 2, 18 ), Vector3( 18, 2, 18 ), Vector3( 18, 2, -18 ), Vector3( 0, 2, -18 ), Vector3( 0, 2, 0 ) ]
}
tracks/1/type = "value"
tracks/1/path = NodePath(".:material/0:albedo_color")
tracks/1/interp = 1
tracks/1/loop_wrap = true
tracks/1/imported = false
tracks/1/enabled = true
tracks/1/keys = {
"times": PoolRealArray( 0, 6, 12 ),
"transitions": PoolRealArray( 1, 1, 1 ),
"update": 0,
"values": [ Color( 1, 1, 1, 1 ), Color( 1, 0, 0, 1 ), Color( 1, 1, 1, 1 ) ]
}

[node name="Spatial" type="Spatial"]

[node name="SpatialPlayground" parent="." instance=ExtResource( 1 )]

[node name="MeshInstance" type="MeshInstance" parent="."]
transform = Transform( 1, 0, 0, 0, 1, 0, 0, 0, 1, 0, 2, 0 )
mesh = SubResource( 1 )
material/0 = SubResource( 2 )

[node name="AnimationPlayer" type="AnimationPlayer" parent="MeshInstance"]
autoplay = "Move"
anims/Move = SubResource( 3 )
