<Qucs Schematic 0.0.19>
<Properties>
  <View=240,-17,1454,760,1,0,0>
  <Grid=10,10,1>
  <DataSet=Bridge.dat>
  <DataDisplay=Bridge.dpl>
  <OpenDisplay=1>
  <Script=Bridge.m>
  <RunScript=0>
  <showFrame=0>
  <FrameText0=Title>
  <FrameText1=Drawn By:>
  <FrameText2=Date:>
  <FrameText3=Revision:>
</Properties>
<Symbol>
</Symbol>
<Components>
  <Vdc V1 1 310 360 18 -26 0 1 "100 V" 1>
  <.DC DC1 1 930 180 0 39 0 0 "26.85" 0 "0.001" 0 "1 pA" 0 "1 uV" 0 "no" 0 "150" 0 "no" 0 "none" 0 "CroutLU" 0>
  <R R4 1 720 510 -92 -26 1 1 "50 Ohm" 1 "26.85" 0 "0.0" 0 "0.0" 0 "26.85" 0 "european" 0>
  <R R3 1 500 510 -92 -26 1 1 "25 Ohm" 1 "26.85" 0 "0.0" 0 "0.0" 0 "26.85" 0 "european" 0>
  <R R1 1 500 250 -92 -26 1 1 "200 Ohm" 1 "26.85" 0 "0.0" 0 "0.0" 0 "26.85" 0 "european" 0>
  <R R2 1 720 250 -92 -26 1 1 "100 Ohm" 1 "26.85" 0 "0.0" 0 "0.0" 0 "26.85" 0 "european" 0>
  <R R5 1 610 400 -26 15 1 2 "10 Ohm" 1 "26.85" 0 "0.0" 0 "0.0" 0 "26.85" 0 "european" 0>
  <VProbe Pr1 1 610 340 28 -31 0 0>
  <IProbe Pr2 1 470 120 -26 16 0 0>
  <GND * 1 310 640 0 0 0 0>
</Components>
<Wires>
  <500 400 540 400 "" 0 0 0 "">
  <310 390 310 640 "" 0 0 0 "">
  <680 400 720 400 "" 0 0 0 "">
  <720 400 720 480 "" 0 0 0 "">
  <500 400 500 480 "" 0 0 0 "">
  <500 540 500 580 "" 0 0 0 "">
  <500 580 600 580 "" 0 0 0 "">
  <720 540 720 580 "" 0 0 0 "">
  <600 580 720 580 "" 0 0 0 "">
  <500 180 600 180 "" 0 0 0 "">
  <500 180 500 220 "" 0 0 0 "">
  <720 180 720 220 "" 0 0 0 "">
  <720 280 720 400 "e3" 750 350 97 "">
  <500 280 500 400 "e2" 460 330 99 "">
  <640 400 680 400 "" 0 0 0 "">
  <540 400 580 400 "" 0 0 0 "">
  <680 360 680 400 "" 0 0 0 "">
  <620 360 680 360 "" 0 0 0 "">
  <540 360 540 400 "" 0 0 0 "">
  <540 360 600 360 "" 0 0 0 "">
  <600 180 720 180 "" 0 0 0 "">
  <600 120 600 180 "" 0 0 0 "">
  <500 120 600 120 "" 0 0 0 "">
  <310 120 310 330 "" 0 0 0 "">
  <310 120 440 120 "e1" 300 60 19 "">
  <600 580 600 640 "" 0 0 0 "">
  <310 640 600 640 "" 0 0 0 "">
</Wires>
<Diagrams>
  <Tab 850 571 393 172 3 #c0c0c0 1 00 1 0 1 1 1 0 1 1 1 0 1 1 315 0 225 "" "" "">
	<"Pr1.V" #0000ff 0 3 0 0 0>
	<"Pr2.I" #0000ff 0 3 0 0 0>
	<"e1.V" #0000ff 0 3 0 0 0>
	<"e2.V" #0000ff 0 3 0 0 0>
	<"e3.V" #0000ff 0 3 0 0 0>
  </Tab>
</Diagrams>
<Paintings>
</Paintings>
